,date,city,rent,product
0,2020-01-01,Artvin,6,1703
1,2020-01-02,Osmaniye,8,1486
2,2020-01-03,Gaziantep,13,1417
3,2020-01-04,Çanakkale,11,1105
4,2020-01-05,Tunceli,11,1056
5,2020-01-06,Bilecik,9,1592
6,2020-01-07,Isparta,6,1884
7,2020-01-08,Muğla,10,1612
8,2020-01-09,Adana,1,1353
9,2020-01-10,Kayseri,11,1114
10,2020-01-11,Aydın,8,1379
11,2020-01-12,Erzurum,1,1975
12,2020-01-13,Bartın,10,1050
13,2020-01-14,Kilis,9,1819
14,2020-01-15,Çankırı,2,1324
15,2020-01-16,Erzurum,5,1932
16,2020-01-17,Sakarya,11,1140
17,2020-01-18,Tokat,1,1772
18,2020-01-19,Giresun,6,1767
19,2020-01-20,Çorum,14,1587
20,2020-01-21,Van,13,1224
21,2020-01-22,Giresun,8,1577
22,2020-01-23,Bursa,4,1640
23,2020-01-24,Muğla,9,1248
24,2020-01-25,Kayseri,1,1272
25,2020-01-26,Kırklareli,2,1862
26,2020-01-27,Osmaniye,17,1919
27,2020-01-28,Diyarbakır,2,1897
28,2020-01-29,İçel (Mersin),8,1169
29,2020-01-30,Kırıkkale,8,1431
30,2020-01-31,Kırıkkale,1,1888
31,2020-02-01,Erzurum,8,1330
32,2020-02-02,İstanbul,5,1693
33,2020-02-03,Sivas,13,1609
34,2020-02-04,Hatay,12,1592
35,2020-02-05,Bilecik,14,1413
36,2020-02-06,Erzurum,13,1118
37,2020-02-07,Muğla,10,1493
38,2020-02-08,Kütahya,6,1190
39,2020-02-09,Burdur,17,1873
40,2020-02-10,Şanlıurfa,6,1762
41,2020-02-11,Çorum,13,1989
42,2020-02-12,Gümüşhane,16,1103
43,2020-02-13,Denizli,13,1120
44,2020-02-14,Adıyaman,15,1263
45,2020-02-15,Kırşehir,6,1222
46,2020-02-16,Bingöl,11,1203
47,2020-02-17,Denizli,1,1582
48,2020-02-18,Çankırı,6,1215
49,2020-02-19,Trabzon,3,1629
50,2020-02-20,Tokat,7,1407
51,2020-02-21,Aydın,10,1541
52,2020-02-22,Bitlis,12,1374
53,2020-02-23,Kastamonu,8,1637
54,2020-02-24,Antalya,6,1176
55,2020-02-25,İzmir,16,1764
56,2020-02-26,Malatya,17,1868
57,2020-02-27,Düzce,11,1920
58,2020-02-28,Adana,11,1775
59,2020-02-29,Zonguldak,17,1506
60,2020-03-01,Kırklareli,4,1467
61,2020-03-02,Antalya,15,1468
62,2020-03-03,Edirne,7,1141
63,2020-03-04,Rize,6,1574
64,2020-03-05,Trabzon,3,1924
65,2020-03-06,Yalova,16,1379
66,2020-03-07,Manisa,13,1923
67,2020-03-08,Bartın,7,1747
68,2020-03-09,Iğdır,13,1216
69,2020-03-10,Bingöl,8,1338
70,2020-03-11,Sivas,1,1510
71,2020-03-12,Çankırı,15,1977
72,2020-03-13,Siirt,14,1842
73,2020-03-14,Rize,3,1822
74,2020-03-15,Giresun,6,1406
75,2020-03-16,Balıkesir,2,1110
76,2020-03-17,Şırnak,7,1552
77,2020-03-18,Artvin,7,1769
78,2020-03-19,Çankırı,6,1457
79,2020-03-20,Erzurum,4,1581
80,2020-03-21,Kayseri,2,1317
81,2020-03-22,Bartın,17,1128
82,2020-03-23,Balıkesir,11,1234
83,2020-03-24,Bolu,13,1571
84,2020-03-25,İstanbul,11,1857
85,2020-03-26,Şırnak,4,1095
86,2020-03-27,Gümüşhane,11,1286
87,2020-03-28,Zonguldak,13,1954
88,2020-03-29,Hakkari,14,1969
89,2020-03-30,Balıkesir,6,1761
90,2020-03-31,Düzce,17,1246
91,2020-04-01,Şırnak,16,1373
92,2020-04-02,Bingöl,13,1386
93,2020-04-03,Bingöl,2,1573
94,2020-04-04,Burdur,10,1027
95,2020-04-05,Kocaeli,12,1052
96,2020-04-06,Kars,15,1528
97,2020-04-07,İçel (Mersin),4,1677
98,2020-04-08,Van,5,1413
99,2020-04-09,Sinop,17,1929
100,2020-04-10,Amasya,1,1891
101,2020-04-11,Afyon,16,1246
102,2020-04-12,Hakkari,13,1901
103,2020-04-13,Düzce,8,1839
104,2020-04-14,Adana,8,1005
105,2020-04-15,Afyon,15,1354
106,2020-04-16,Malatya,9,1095
107,2020-04-17,Sakarya,6,1369
108,2020-04-18,Ordu,7,1497
109,2020-04-19,Gümüşhane,5,1228
110,2020-04-20,Kayseri,11,1588
111,2020-04-21,Mardin,6,1352
112,2020-04-22,Kırşehir,5,1757
113,2020-04-23,Samsun,4,1588
114,2020-04-24,Aydın,14,1835
115,2020-04-25,Rize,11,1138
116,2020-04-26,Konya,12,1484
117,2020-04-27,Malatya,11,1240
118,2020-04-28,Van,9,1576
119,2020-04-29,Ordu,5,1207
120,2020-04-30,Artvin,15,1820
121,2020-05-01,Antalya,6,1567
122,2020-05-02,Antalya,13,1502
123,2020-05-03,Konya,12,1082
124,2020-05-04,Bayburt,15,1586
125,2020-05-05,Tunceli,1,1549
126,2020-05-06,Aydın,16,1799
127,2020-05-07,Düzce,1,1964
128,2020-05-08,Çanakkale,9,1769
129,2020-05-09,Manisa,3,1364
130,2020-05-10,İzmir,8,1147
131,2020-05-11,Erzurum,7,1760
132,2020-05-12,Çanakkale,8,1271
133,2020-05-13,Kütahya,13,1553
134,2020-05-14,Şırnak,7,1678
135,2020-05-15,Rize,2,1321
136,2020-05-16,Denizli,13,1774
137,2020-05-17,Manisa,17,1989
138,2020-05-18,Karabük,7,1431
139,2020-05-19,Tunceli,15,1681
140,2020-05-20,Zonguldak,3,1659
141,2020-05-21,Giresun,2,1872
142,2020-05-22,Mardin,2,1783
143,2020-05-23,Nevşehir,13,1388
144,2020-05-24,Muş,1,1955
145,2020-05-25,Gümüşhane,13,1275
146,2020-05-26,Kırklareli,2,1182
147,2020-05-27,Kastamonu,13,1833
148,2020-05-28,Bolu,3,1406
149,2020-05-29,Bolu,15,1067
150,2020-05-30,Giresun,3,1787
151,2020-05-31,Tekirdağ,7,1799
152,2020-06-01,Burdur,15,1265
153,2020-06-02,Burdur,7,1279
154,2020-06-03,Uşak,8,1297
155,2020-06-04,Tunceli,2,1898
156,2020-06-05,Adana,9,1574
157,2020-06-06,Karaman,7,1023
158,2020-06-07,Isparta,9,1732
159,2020-06-08,Malatya,17,1875
160,2020-06-09,Kırklareli,15,1539
161,2020-06-10,Kırıkkale,10,1325
162,2020-06-11,Bartın,7,1985
163,2020-06-12,Artvin,6,1419
164,2020-06-13,Kırıkkale,11,1407
165,2020-06-14,Erzincan,3,1572
166,2020-06-15,Şırnak,15,1011
167,2020-06-16,Yozgat,3,1549
168,2020-06-17,Bursa,12,1431
169,2020-06-18,Amasya,5,1123
170,2020-06-19,Tunceli,16,1257
171,2020-06-20,Karaman,2,1257
172,2020-06-21,Balıkesir,11,1913
173,2020-06-22,Adana,14,1210
174,2020-06-23,Aydın,11,1544
175,2020-06-24,Sivas,12,1243
176,2020-06-25,Uşak,13,1636
177,2020-06-26,Manisa,15,1126
178,2020-06-27,İçel (Mersin),8,1754
179,2020-06-28,Siirt,5,1066
180,2020-06-29,Denizli,7,1609
181,2020-06-30,Burdur,15,1559
182,2020-07-01,Manisa,13,1868
183,2020-07-02,Batman,6,1619
184,2020-07-03,Rize,5,1316
185,2020-07-04,Yozgat,6,1626
186,2020-07-05,Kars,13,1156
187,2020-07-06,Bayburt,9,1696
188,2020-07-07,Diyarbakır,14,1358
189,2020-07-08,Kahramanmaraş,4,1932
190,2020-07-09,Erzurum,7,1845
191,2020-07-10,Samsun,12,1195
192,2020-07-11,Isparta,14,1515
193,2020-07-12,Kocaeli,17,1271
194,2020-07-13,Sivas,2,1905
195,2020-07-14,Tekirdağ,16,1931
196,2020-07-15,Bingöl,7,1049
197,2020-07-16,İçel (Mersin),3,1698
198,2020-07-17,Çanakkale,17,1508
199,2020-07-18,Kırklareli,2,1715
200,2020-07-19,Aksaray,8,1444
201,2020-07-20,Aydın,2,1969
202,2020-07-21,Adana,13,1769
203,2020-07-22,İstanbul,17,1345
204,2020-07-23,Burdur,4,1954
205,2020-07-24,Balıkesir,6,1948
206,2020-07-25,Batman,5,1685
207,2020-07-26,Hakkari,1,1579
208,2020-07-27,Bingöl,8,1890
209,2020-07-28,Giresun,6,1933
210,2020-07-29,Bolu,12,1199
211,2020-07-30,Denizli,16,1845
212,2020-07-31,Eskişehir,12,1093
213,2020-08-01,Kocaeli,15,1734
214,2020-08-02,Uşak,14,1702
215,2020-08-03,Gaziantep,13,1672
216,2020-08-04,Bayburt,15,1536
217,2020-08-05,Kahramanmaraş,15,1266
218,2020-08-06,Kırklareli,17,1625
219,2020-08-07,Bingöl,6,1503
220,2020-08-08,Bolu,8,1305
221,2020-08-09,Denizli,10,1089
222,2020-08-10,Bursa,5,1304
223,2020-08-11,Aydın,4,1243
224,2020-08-12,Niğde,2,1261
225,2020-08-13,Bingöl,6,1966
226,2020-08-14,Karaman,9,1061
227,2020-08-15,Kayseri,3,1755
228,2020-08-16,Kahramanmaraş,1,1650
229,2020-08-17,Erzincan,10,1780
230,2020-08-18,Batman,4,1802
231,2020-08-19,Karabük,2,1634
232,2020-08-20,Malatya,10,1009
233,2020-08-21,Balıkesir,4,1919
234,2020-08-22,Karaman,6,1040
235,2020-08-23,Yalova,10,1939
236,2020-08-24,Burdur,15,1082
237,2020-08-25,Hakkari,5,1599
238,2020-08-26,Van,14,1445
239,2020-08-27,Manisa,14,1790
240,2020-08-28,Afyon,6,1893
241,2020-08-29,Bingöl,2,1502
242,2020-08-30,Giresun,6,1003
243,2020-08-31,Gümüşhane,10,1329
244,2020-09-01,Malatya,6,1899
245,2020-09-02,Eskişehir,1,1709
246,2020-09-03,İzmir,13,1936
247,2020-09-04,Karabük,5,1710
248,2020-09-05,İçel (Mersin),10,1727
249,2020-09-06,Yalova,1,1545
250,2020-09-07,Kırşehir,2,1934
251,2020-09-08,Konya,4,1769
252,2020-09-09,Kilis,14,1584
253,2020-09-10,Bingöl,2,1918
254,2020-09-11,Tekirdağ,11,1012
255,2020-09-12,Şanlıurfa,1,1607
256,2020-09-13,Balıkesir,8,1348
257,2020-09-14,Yalova,12,1085
258,2020-09-15,Kütahya,9,1970
259,2020-09-16,Aydın,7,1907
260,2020-09-17,Artvin,6,1083
261,2020-09-18,Bolu,11,1455
262,2020-09-19,Nevşehir,5,1727
263,2020-09-20,Kırklareli,16,1596
264,2020-09-21,Erzincan,15,1653
265,2020-09-22,Kocaeli,5,1625
266,2020-09-23,Aksaray,9,1584
267,2020-09-24,Siirt,7,1026
268,2020-09-25,Ordu,7,1607
269,2020-09-26,Siirt,6,1865
270,2020-09-27,Hatay,3,1677
271,2020-09-28,Batman,7,1433
272,2020-09-29,Diyarbakır,16,1393
273,2020-09-30,Yalova,11,1351
274,2020-10-01,Sakarya,12,1908
275,2020-10-02,Yozgat,17,1568
276,2020-10-03,Kastamonu,8,1542
277,2020-10-04,Ankara,8,1131
278,2020-10-05,Van,14,1556
279,2020-10-06,Samsun,5,1466
280,2020-10-07,Iğdır,5,1162
281,2020-10-08,Kastamonu,11,1691
282,2020-10-09,Bitlis,12,1510
283,2020-10-10,Erzincan,3,1462
284,2020-10-11,Kayseri,17,1632
285,2020-10-12,Iğdır,5,1848
286,2020-10-13,Sivas,15,1394
287,2020-10-14,Karaman,10,1884
288,2020-10-15,Bingöl,17,1958
289,2020-10-16,Kocaeli,3,1435
290,2020-10-17,Bolu,7,1798
291,2020-10-18,Bingöl,13,1651
292,2020-10-19,Kütahya,10,1659
293,2020-10-20,Uşak,12,1026
294,2020-10-21,Düzce,7,1124
295,2020-10-22,Çankırı,12,1236
296,2020-10-23,Bingöl,14,1619
297,2020-10-24,Adana,3,1808
298,2020-10-25,Trabzon,4,1747
299,2020-10-26,Burdur,11,1061
300,2020-10-27,Amasya,3,1933
301,2020-10-28,Bitlis,13,1524
302,2020-10-29,Sakarya,5,1310
303,2020-10-30,Niğde,2,1240
304,2020-10-31,Diyarbakır,3,1311
305,2020-11-01,Trabzon,14,1556
306,2020-11-02,Sinop,11,1420
307,2020-11-03,Kırıkkale,9,1213
308,2020-11-04,İzmir,3,1382
309,2020-11-05,Edirne,15,1347
310,2020-11-06,Sakarya,13,1580
311,2020-11-07,Muğla,9,1204
312,2020-11-08,Batman,13,1590
313,2020-11-09,Çanakkale,10,1444
314,2020-11-10,Kars,1,1480
315,2020-11-11,Siirt,3,1550
316,2020-11-12,Erzincan,16,1694
317,2020-11-13,Kahramanmaraş,6,1592
318,2020-11-14,Batman,10,1840
319,2020-11-15,Osmaniye,4,1230
320,2020-11-16,Diyarbakır,4,1713
321,2020-11-17,Şırnak,11,1325
322,2020-11-18,Diyarbakır,1,1646
323,2020-11-19,İstanbul,5,1605
324,2020-11-20,Karabük,5,1880
325,2020-11-21,Kırşehir,10,1033
326,2020-11-22,İzmir,4,1710
327,2020-11-23,Şırnak,2,1581
328,2020-11-24,Adana,4,1307
329,2020-11-25,Erzurum,2,1771
330,2020-11-26,Bartın,2,1875
331,2020-11-27,İzmir,7,1820
332,2020-11-28,İçel (Mersin),17,1648
333,2020-11-29,Osmaniye,8,1935
334,2020-11-30,Giresun,12,1067
335,2020-12-01,Isparta,17,1862
336,2020-12-02,Bursa,2,1269
337,2020-12-03,Aydın,4,1097
338,2020-12-04,Ordu,7,1408
339,2020-12-05,Kırklareli,1,1888
340,2020-12-06,Çankırı,14,1303
341,2020-12-07,Aydın,5,1067
342,2020-12-08,Şanlıurfa,12,1677
343,2020-12-09,Gaziantep,1,1503
344,2020-12-10,Antalya,3,1902
345,2020-12-11,Çankırı,6,1261
346,2020-12-12,Bingöl,4,1922
347,2020-12-13,İzmir,12,1770
348,2020-12-14,Rize,12,1571
349,2020-12-15,Kastamonu,12,1089
350,2020-12-16,Bartın,10,1478
351,2020-12-17,Bayburt,17,1202
352,2020-12-18,Şanlıurfa,14,1937
353,2020-12-19,Tokat,6,1736
354,2020-12-20,Sinop,3,1547
355,2020-12-21,Karabük,12,1275
356,2020-12-22,Isparta,15,1653
357,2020-12-23,Iğdır,15,1913
358,2020-12-24,Çankırı,9,1526
359,2020-12-25,İçel (Mersin),4,1649
360,2020-12-26,Ağrı,1,1109
361,2020-12-27,Karaman,5,1808
362,2020-12-28,Kilis,2,1433
363,2020-12-29,Kars,12,1142
364,2020-12-30,Karaman,4,1041
